{
  "images" : [
    {
      "idiom" : "universal",
      "filename" : "Untitled_1_0000s_0000____2752_Valley_Lane_Lytton_Springs__TX_78616.png",
      "scale" : "1x"
    },
    {
      "idiom" : "universal",
      "filename" : "Untitled_1_0000s_0000____2752_Valley_Lane_Lytton_Springs__TX_78616@2x.png",
      "scale" : "2x"
    },
    {
      "idiom" : "universal",
      "filename" : "Untitled_1_0000s_0000____2752_Valley_Lane_Lytton_Springs__TX_78616@3x.png",
      "scale" : "3x"
    }
  ],
  "info" : {
    "version" : 1,
    "author" : "xcode"
  }
}